objective_file_name;D-Gauss8 F1.1 30.2deg_Angeniux USP2701987 p347.csv
prop_objective_scale;1.000000
prop_vertex_count_radial;32
prop_vertex_count_height;36
prop_aperture_blades;12
prop_aperture_size;10.289480
prop_aperture_angle;30.000000
prop_sensor_width;30.000000
prop_sensor_height;30.000000
prop_pixel_size;0.010000
prop_wavelength;587.599976
prop_focus_distance;20.000000
prop_sensor_mainlens_distance;195.579222
prop_mla_enabled;True
prop_mla_type;HEX
prop_microlens_diam;400.000000
prop_mla_sensor_dist;3.689021
prop_three_ml_types;False
prop_ml_type_1_f;3.000000
prop_ml_type_2_f;3.000000
prop_ml_type_3_f;3.000000
