objective_file_name;D-Gauss6 F1.4 34.4deg_Merte-Zeiss DRP485798-1927 p306.csv
prop_objective_scale;1.000000
prop_vertex_count_radial;32
prop_vertex_count_height;36
prop_aperture_blades;12
prop_aperture_size;9.121550
prop_aperture_angle;30.000000
prop_sensor_width;30.000000
prop_sensor_height;30.000000
prop_pixel_size;0.010000
prop_wavelength;587.599976
prop_focus_distance;200.000000
prop_sensor_mainlens_distance;126.328840
prop_mla_enabled;True
prop_mla_type;HEX
prop_microlens_diam;300.000000
prop_mla_sensor_dist;2.021077
prop_three_ml_types;False
prop_ml_type_1_f;1.500000
prop_ml_type_2_f;1.500000
prop_ml_type_3_f;1.500000
